resources/ultrasonic/4000psi-300K_+39MHz000.csv

"Record Length",100000,"Points",0.00000000e+000,3.99843767e-003
"Sample Interval",1.00000000e-010,s,1.00000000e-010,3.99375017e-003
"Trigger Point",0,"Samples",2.00000000e-010,3.89531267e-003
"Trigger Time",0.00000000e+000,s,3.00000000e-010,3.99843767e-003
"",,,4.00000000e-010,3.90000017e-003
"Horizontal Offset",0.00000000e+000,s,5.00000000e-010,3.94218767e-003
,,,6.00000000e-010,3.90937517e-003
,,,7.00000000e-010,4.03593767e-003
,,,8.00000000e-010,3.89062517e-003
,,,9.00000000e-010,3.95156267e-003
,,,1.00000000e-009,3.95156267e-003
,,,1.10000000e-009,3.91875017e-003
,,,1.20000000e-009,3.91875017e-003
,,,1.30000000e-009,3.98906267e-003
,,,1.40000000e-009,3.97968767e-003
,,,1.50000000e-009,3.93750017e-003
,,,1.60000000e-009,3.95625017e-003
,,,1.70000000e-009,4.02656267e-003
,,,1.80000000e-009,3.88593767e-003
,,,1.90000000e-009,4.03593767e-003
,,,2.00000000e-009,3.90937517e-003
,,,2.10000000e-009,3.97500017e-003
,,,2.20000000e-009,3.98906267e-003
,,,2.30000000e-009,3.98437517e-003
,,,2.40000000e-009,4.07812518e-003
,,,2.50000000e-009,3.90937517e-003
,,,2.60000000e-009,4.04531267e-003
,,,2.70000000e-009,3.91875017e-003
,,,2.80000000e-009,3.96562517e-003
,,,2.90000000e-009,4.02187517e-003
,,,3.00000000e-009,3.97500017e-003
,,,3.10000000e-009,3.97500017e-003
,,,3.20000000e-009,3.98906267e-003
,,,3.30000000e-009,3.98906267e-003
,,,3.40000000e-009,4.00312517e-003
,,,3.50000000e-009,3.96093767e-003
,,,3.60000000e-009,3.95625017e-003
,,,3.70000000e-009,3.97500017e-003
,,,3.80000000e-009,3.98437517e-003
,,,3.90000000e-009,4.01250017e-003
,,,4.00000000e-009,3.93750017e-003
,,,4.10000000e-009,4.02187517e-003
,,,4.20000000e-009,4.05468768e-003
,,,4.30000000e-009,3.98437517e-003
,,,4.40000000e-009,3.90000017e-003
,,,4.50000000e-009,4.11562518e-003
,,,4.60000000e-009,3.96562517e-003
,,,4.70000000e-009,3.99375017e-003
,,,4.80000000e-009,3.87656267e-003
,,,4.90000000e-009,3.96093767e-003
,,,5.00000000e-009,3.98906267e-003
,,,5.10000000e-009,3.97968767e-003
,,,5.20000000e-009,3.97968767e-003
,,,5.30000000e-009,4.00312517e-003
,,,5.40000000e-009,3.89531267e-003
,,,5.50000000e-009,4.03125017e-003
,,,5.60000000e-009,3.93750017e-003
,,,5.70000000e-009,4.00781267e-003
,,,5.80000000e-009,3.90000017e-003
,,,5.90000000e-009,4.03593767e-003
,,,6.00000000e-009,3.97031267e-003
,,,6.10000000e-009,3.96562517e-003
,,,6.20000000e-009,3.98906267e-003
,,,6.30000000e-009,3.98906267e-003
,,,6.40000000e-009,3.94687517e-003
,,,6.50000000e-009,3.98437517e-003
,,,6.60000000e-009,3.97500017e-003
,,,6.70000000e-009,3.88593767e-003
,,,6.80000000e-009,3.99375017e-003
,,,6.90000000e-009,3.93750017e-003
,,,7.00000000e-009,3.93281267e-003
,,,7.10000000e-009,3.90468767e-003
,,,7.20000000e-009,3.86250017e-003
,,,7.30000000e-009,3.95156267e-003
,,,7.40000000e-009,3.97500017e-003
,,,7.50000000e-009,3.83437517e-003
,,,7.60000000e-009,3.98906267e-003
,,,7.70000000e-009,3.88125017e-003
,,,7.80000000e-009,4.03125017e-003
,,,7.90000000e-009,3.88593767e-003
,,,8.00000000e-009,4.04062517e-003
,,,8.10000000e-009,3.94687517e-003
,,,8.20000000e-009,3.89531267e-003
,,,8.30000000e-009,3.94218767e-003
,,,8.40000000e-009,3.92812517e-003
,,,8.50000000e-009,3.97031267e-003
,,,8.60000000e-009,3.97968767e-003
,,,8.70000000e-009,3.94687517e-003
,,,8.80000000e-009,3.82968767e-003
,,,8.90000000e-009,4.01718767e-003
,,,9.00000000e-009,3.88593767e-003
,,,9.10000000e-009,3.84843767e-003
,,,9.20000000e-009,3.92812517e-003
,,,9.30000000e-009,3.87656267e-003
,,,9.40000000e-009,3.90468767e-003
,,,9.50000000e-009,3.87187517e-003
,,,9.60000000e-009,3.94218767e-003
,,,9.70000000e-009,3.87187517e-003
,,,9.80000000e-009,3.90937517e-003
,,,9.90000000e-009,3.87187517e-003
,,,1.00000000e-008,4.00312517e-003
,,,1.01000000e-008,3.86250017e-003
,,,1.02000000e-008,3.94687517e-003
,,,1.03000000e-008,4.02656267e-003
,,,1.04000000e-008,3.90937517e-003
,,,1.05000000e-008,3.90468767e-003
,,,1.06000000e-008,3.90468767e-003
,,,1.07000000e-008,3.94218767e-003
,,,1.08000000e-008,3.91406267e-003
,,,1.09000000e-008,3.90000017e-003
,,,1.10000000e-008,3.98437517e-003
,,,1.11000000e-008,3.85781267e-003
,,,1.12000000e-008,3.96562517e-003
,,,1.13000000e-008,4.00781267e-003
,,,1.14000000e-008,3.89531267e-003
,,,1.15000000e-008,3.88593767e-003
,,,1.16000000e-008,3.93750017e-003
,,,1.17000000e-008,3.83906267e-003
,,,1.18000000e-008,3.97500017e-003
,,,1.19000000e-008,3.85312517e-003
,,,1.20000000e-008,3.91875017e-003
,,,1.21000000e-008,3.91406267e-003
,,,1.22000000e-008,3.89531267e-003
,,,1.23000000e-008,4.01250017e-003
,,,1.24000000e-008,3.87187517e-003
,,,1.25000000e-008,3.97031267e-003
,,,1.26000000e-008,3.90000017e-003
,,,1.27000000e-008,3.87656267e-003
,,,1.28000000e-008,3.93281267e-003
,,,1.29000000e-008,3.86718767e-003
,,,1.30000000e-008,3.97500017e-003
,,,1.31000000e-008,3.84843767e-003
,,,1.32000000e-008,3.89531267e-003
,,,1.33000000e-008,3.90468767e-003
,,,1.34000000e-008,3.90000017e-003
,,,1.35000000e-008,3.87656267e-003
,,,1.36000000e-008,3.96093767e-003
,,,1.37000000e-008,3.90937517e-003
,,,1.38000000e-008,3.90000017e-003
,,,1.39000000e-008,3.95156267e-003
,,,1.40000000e-008,3.84843767e-003
,,,1.41000000e-008,3.97500017e-003
,,,1.42000000e-008,3.87656267e-003
,,,1.43000000e-008,3.99843767e-003
,,,1.44000000e-008,3.89062517e-003
,,,1.45000000e-008,3.92343767e-003
,,,1.46000000e-008,3.96093767e-003
,,,1.47000000e-008,3.92343767e-003
,,,1.48000000e-008,3.96562517e-003
,,,1.49000000e-008,3.96093767e-003
,,,1.50000000e-008,3.93750017e-003
,,,1.51000000e-008,3.93750017e-003
,,,1.52000000e-008,3.93281267e-003
,,,1.53000000e-008,3.98906267e-003
,,,1.54000000e-008,3.95156267e-003
,,,1.55000000e-008,3.90000017e-003
,,,1.56000000e-008,3.95156267e-003
,,,1.57000000e-008,3.91406267e-003
,,,1.58000000e-008,3.89062517e-003
,,,1.59000000e-008,3.94687517e-003
,,,1.60000000e-008,3.95625017e-003
,,,1.61000000e-008,3.93281267e-003
,,,1.62000000e-008,3.85312517e-003
,,,1.63000000e-008,3.97968767e-003
,,,1.64000000e-008,3.94218767e-003
,,,1.65000000e-008,3.94218767e-003
,,,1.66000000e-008,3.86718767e-003
,,,1.67000000e-008,3.96093767e-003
,,,1.68000000e-008,4.00312517e-003
,,,1.69000000e-008,3.93281267e-003
,,,1.70000000e-008,3.92343767e-003
,,,1.71000000e-008,3.99375017e-003
,,,1.72000000e-008,3.90468767e-003
,,,1.73000000e-008,3.96093767e-003
,,,1.74000000e-008,3.90000017e-003
,,,1.75000000e-008,3.94218767e-003
,,,1.76000000e-008,3.98906267e-003
,,,1.77000000e-008,3.88125017e-003
,,,1.78000000e-008,3.88125017e-003
,,,1.79000000e-008,3.90937517e-003
,,,1.80000000e-008,3.95625017e-003
,,,1.81000000e-008,3.95156267e-003
,,,1.82000000e-008,3.93281267e-003
,,,1.83000000e-008,4.01718767e-003
,,,1.84000000e-008,3.92812517e-003
,,,1.85000000e-008,3.95156267e-003
,,,1.86000000e-008,3.95625017e-003
,,,1.87000000e-008,3.96093767e-003
,,,1.88000000e-008,3.95156267e-003
,,,1.89000000e-008,3.98437517e-003
,,,1.90000000e-008,3.93281267e-003
,,,1.91000000e-008,3.98437517e-003
,,,1.92000000e-008,3.93281267e-003
,,,1.93000000e-008,4.01250017e-003
,,,1.94000000e-008,3.90937517e-003
,,,1.95000000e-008,4.02187517e-003
,,,1.96000000e-008,3.97031267e-003
,,,1.97000000e-008,3.97968767e-003
,,,1.98000000e-008,3.93750017e-003
,,,1.99000000e-008,3.96562517e-003
,,,2.00000000e-008,3.97031267e-003
,,,2.01000000e-008,3.92812517e-003
,,,2.02000000e-008,3.94687517e-003
,,,2.03000000e-008,3.85781267e-003
,,,2.04000000e-008,3.98906267e-003
,,,2.05000000e-008,3.96093767e-003
,,,2.06000000e-008,3.94218767e-003
,,,2.07000000e-008,4.04062517e-003
,,,2.08000000e-008,3.92343767e-003
,,,2.09000000e-008,3.99375017e-003
,,,2.10000000e-008,3.91875017e-003
,,,2.11000000e-008,3.92812517e-003
,,,2.12000000e-008,3.96562517e-003
,,,2.13000000e-008,3.95156267e-003
,,,2.14000000e-008,3.92812517e-003
,,,2.15000000e-008,3.93750017e-003
,,,2.16000000e-008,3.90937517e-003
,,,2.17000000e-008,3.99375017e-003
,,,2.18000000e-008,3.93750017e-003
,,,2.19000000e-008,3.94687517e-003
,,,2.20000000e-008,3.99375017e-003
,,,2.21000000e-008,3.95156267e-003
,,,2.22000000e-008,3.95625017e-003
,,,2.23000000e-008,3.84375017e-003
,,,2.24000000e-008,3.93281267e-003
,,,2.25000000e-008,3.92343767e-003
,,,2.26000000e-008,3.98437517e-003
,,,2.27000000e-008,3.82031267e-003
,,,2.28000000e-008,3.91406267e-003
,,,2.29000000e-008,3.91406267e-003
,,,2.30000000e-008,3.95625017e-003
,,,2.31000000e-008,3.97500017e-003
,,,2.32000000e-008,3.85312517e-003
,,,2.33000000e-008,3.94687517e-003
,,,2.34000000e-008,4.00781267e-003
,,,2.35000000e-008,3.92343767e-003
,,,2.36000000e-008,3.91875017e-003
,,,2.37000000e-008,3.93281267e-003
,,,2.38000000e-008,3.91875017e-003
,,,2.39000000e-008,4.00312517e-003
,,,2.40000000e-008,3.92343767e-003
,,,2.41000000e-008,3.99375017e-003
,,,2.42000000e-008,3.87187517e-003
,,,2.43000000e-008,3.97031267e-003
,,,2.44000000e-008,3.92812517e-003
,,,2.45000000e-008,3.95156267e-003
,,,2.46000000e-008,3.84375017e-003
,,,2.47000000e-008,3.92812517e-003
,,,2.48000000e-008,3.98906267e-003
,,,2.49000000e-008,3.90468767e-003
,,,2.50000000e-008,3.94218767e-003
,,,2.51000000e-008,3.97500017e-003
,,,2.52000000e-008,3.90937517e-003
,,,2.53000000e-008,3.97968767e-003
,,,2.54000000e-008,3.97968767e-003
,,,2.55000000e-008,4.04531267e-003
,,,2.56000000e-008,3.91406267e-003
,,,2.57000000e-008,4.02187517e-003
,,,2.58000000e-008,3.89531267e-003
,,,2.59000000e-008,3.93750017e-003
,,,2.60000000e-008,3.94218767e-003
,,,2.61000000e-008,3.93750017e-003
,,,2.62000000e-008,3.96562517e-003
,,,2.63000000e-008,3.85312517e-003
,,,2.64000000e-008,3.94218767e-003
,,,2.65000000e-008,3.95156267e-003
,,,2.66000000e-008,3.95156267e-003
,,,2.67000000e-008,3.97031267e-003
,,,2.68000000e-008,3.90468767e-003
,,,2.69000000e-008,3.91406267e-003
,,,2.70000000e-008,3.98906267e-003
,,,2.71000000e-008,3.89531267e-003
,,,2.72000000e-008,3.91406267e-003
,,,2.73000000e-008,3.91875017e-003
,,,2.74000000e-008,3.86250017e-003
,,,2.75000000e-008,3.96562517e-003
,,,2.76000000e-008,3.97031267e-003
,,,2.77000000e-008,3.88593767e-003
,,,2.78000000e-008,3.93281267e-003
,,,2.79000000e-008,3.93281267e-003
,,,2.80000000e-008,3.95156267e-003
,,,2.81000000e-008,3.91406267e-003
,,,2.82000000e-008,3.97500017e-003
,,,2.83000000e-008,3.94687517e-003
,,,2.84000000e-008,3.90468767e-003
,,,2.85000000e-008,3.90937517e-003
,,,2.86000000e-008,3.94687517e-003
,,,2.87000000e-008,3.94687517e-003
,,,2.88000000e-008,3.85781267e-003
,,,2.89000000e-008,3.91406267e-003
,,,2.90000000e-008,3.85312517e-003
,,,2.91000000e-008,3.93750017e-003
,,,2.92000000e-008,3.91875017e-003
,,,2.93000000e-008,3.97968767e-003
,,,2.94000000e-008,3.93281267e-003
,,,2.95000000e-008,3.91875017e-003
,,,2.96000000e-008,3.91406267e-003
,,,2.97000000e-008,3.86250017e-003
,,,2.98000000e-008,3.97968767e-003
,,,2.99000000e-008,3.86250017e-003
,,,3.00000000e-008,3.90000017e-003
,,,3.01000000e-008,3.96562517e-003
,,,3.02000000e-008,3.88125017e-003
,,,3.03000000e-008,3.98906267e-003
,,,3.04000000e-008,3.82968767e-003
,,,3.05000000e-008,3.97968767e-003
,,,3.06000000e-008,3.80625017e-003
,,,3.07000000e-008,3.90468767e-003
,,,3.08000000e-008,3.90000017e-003
,,,3.09000000e-008,3.95156267e-003
,,,3.10000000e-008,3.89062517e-003
,,,3.11000000e-008,3.93750017e-003
,,,3.12000000e-008,3.84375017e-003
,,,3.13000000e-008,3.88593767e-003
,,,3.14000000e-008,3.90468767e-003
,,,3.15000000e-008,3.89062517e-003
,,,3.16000000e-008,3.83906267e-003
,,,3.17000000e-008,3.90000017e-003
,,,3.18000000e-008,3.70312516e-003
,,,3.19000000e-008,3.96562517e-003
,,,3.20000000e-008,3.81093767e-003
,,,3.21000000e-008,3.91406267e-003
,,,3.22000000e-008,3.86250017e-003
,,,3.23000000e-008,3.93750017e-003
,,,3.24000000e-008,3.94687517e-003
,,,3.25000000e-008,3.87656267e-003
,,,3.26000000e-008,3.89531267e-003
,,,3.27000000e-008,3.92343767e-003
,,,3.28000000e-008,3.84843767e-003
,,,3.29000000e-008,3.78750016e-003
,,,3.30000000e-008,3.92812517e-003
,,,3.31000000e-008,3.76406266e-003
,,,3.32000000e-008,3.88593767e-003
,,,3.33000000e-008,3.87656267e-003
,,,3.34000000e-008,3.90937517e-003
,,,3.35000000e-008,3.86250017e-003
,,,3.36000000e-008,3.92812517e-003
,,,3.37000000e-008,3.85312517e-003
,,,3.38000000e-008,3.89062517e-003
,,,3.39000000e-008,3.92343767e-003
,,,3.40000000e-008,3.81562517e-003
,,,3.41000000e-008,3.86250017e-003
,,,3.42000000e-008,3.92343767e-003
,,,3.43000000e-008,3.77343766e-003
,,,3.44000000e-008,3.93750017e-003
,,,3.45000000e-008,3.74062516e-003
,,,3.46000000e-008,3.96093767e-003
,,,3.47000000e-008,3.83906267e-003
,,,3.48000000e-008,3.94687517e-003
,,,3.49000000e-008,3.83906267e-003
,,,3.50000000e-008,3.89531267e-003
,,,3.51000000e-008,3.89062517e-003
,,,3.52000000e-008,3.88593767e-003
,,,3.53000000e-008,3.80625017e-003
,,,3.54000000e-008,3.88125017e-003
,,,3.55000000e-008,3.77812516e-003
,,,3.56000000e-008,4.01250017e-003
,,,3.57000000e-008,3.72187516e-003
,,,3.58000000e-008,3.82031267e-003
,,,3.59000000e-008,3.89062517e-003
,,,3.60000000e-008,3.93281267e-003
,,,3.61000000e-008,3.84375017e-003
,,,3.62000000e-008,3.80625017e-003
,,,3.63000000e-008,3.85781267e-003
,,,3.64000000e-008,3.88593767e-003
,,,3.65000000e-008,3.84843767e-003
,,,3.66000000e-008,3.91406267e-003
,,,3.67000000e-008,3.82500017e-003
,,,3.68000000e-008,3.88125017e-003
,,,3.69000000e-008,3.87187517e-003
,,,3.70000000e-008,3.91875017e-003
,,,3.71000000e-008,3.86718767e-003
,,,3.72000000e-008,3.91406267e-003
,,,3.73000000e-008,3.81562517e-003
,,,3.74000000e-008,3.90468767e-003
,,,3.75000000e-008,3.90000017e-003
,,,3.76000000e-008,3.82031267e-003
,,,3.77000000e-008,3.89531267e-003
,,,3.78000000e-008,3.81562517e-003
,,,3.79000000e-008,3.82031267e-003
,,,3.80000000e-008,3.90000017e-003
,,,3.81000000e-008,3.90937517e-003
,,,3.82000000e-008,3.94218767e-003
,,,3.83000000e-008,3.91406267e-003
,,,3.84000000e-008,3.81093767e-003
,,,3.85000000e-008,3.95625017e-003
,,,3.86000000e-008,3.92343767e-003
,,,3.87000000e-008,3.79218766e-003
,,,3.88000000e-008,3.87187517e-003
,,,3.89000000e-008,3.87187517e-003
,,,3.90000000e-008,3.85312517e-003
,,,3.91000000e-008,3.86250017e-003
,,,3.92000000e-008,3.98437517e-003
,,,3.93000000e-008,3.82031267e-003
,,,3.94000000e-008,3.93750017e-003
,,,3.95000000e-008,3.87187517e-003
,,,3.96000000e-008,3.97031267e-003
,,,3.97000000e-008,3.81562517e-003
,,,3.98000000e-008,3.94687517e-003
,,,3.99000000e-008,3.88593767e-003
,,,4.00000000e-008,3.85312517e-003
,,,4.01000000e-008,3.95156267e-003
,,,4.02000000e-008,3.86250017e-003
,,,4.03000000e-008,3.93750017e-003
,,,4.04000000e-008,3.87187517e-003
,,,4.05000000e-008,4.03125017e-003
,,,4.06000000e-008,3.87656267e-003
,,,4.07000000e-008,3.88593767e-003
,,,4.08000000e-008,4.00781267e-003
,,,4.09000000e-008,3.89062517e-003
,,,4.10000000e-008,3.93281267e-003
,,,4.11000000e-008,3.91406267e-003
,,,4.12000000e-008,3.98437517e-003
,,,4.13000000e-008,3.90468767e-003
,,,4.14000000e-008,3.94218767e-003
,,,4.15000000e-008,3.98437517e-003
,,,4.16000000e-008,3.92343767e-003
,,,4.17000000e-008,3.97500017e-003
,,,4.18000000e-008,3.99843767e-003
,,,4.19000000e-008,3.94218767e-003
,,,4.20000000e-008,3.89531267e-003
,,,4.21000000e-008,3.98437517e-003
,,,4.22000000e-008,3.90000017e-003
,,,4.23000000e-008,3.97968767e-003
,,,4.24000000e-008,3.95625017e-003
,,,4.25000000e-008,3.81093767e-003
,,,4.26000000e-008,3.88125017e-003
,,,4.27000000e-008,3.91875017e-003
,,,4.28000000e-008,3.95156267e-003
,,,4.29000000e-008,3.91875017e-003
,,,4.30000000e-008,3.88593767e-003
,,,4.31000000e-008,4.00312517e-003
,,,4.32000000e-008,3.90937517e-003
,,,4.33000000e-008,3.86718767e-003
,,,4.34000000e-008,3.92812517e-003
,,,4.35000000e-008,3.94218767e-003
,,,4.36000000e-008,3.93750017e-003
,,,4.37000000e-008,3.90468767e-003
,,,4.38000000e-008,3.94218767e-003
,,,4.39000000e-008,3.87187517e-003
,,,4.40000000e-008,3.93281267e-003
,,,4.41000000e-008,3.90000017e-003
,,,4.42000000e-008,3.97031267e-003
,,,4.43000000e-008,3.96562517e-003
,,,4.44000000e-008,3.93750017e-003
,,,4.45000000e-008,3.90937517e-003
,,,4.46000000e-008,3.99843767e-003
,,,4.47000000e-008,3.90000017e-003
,,,4.48000000e-008,3.89531267e-003
,,,4.49000000e-008,4.04531267e-003
,,,4.50000000e-008,3.91875017e-003
,,,4.51000000e-008,3.86250017e-003
,,,4.52000000e-008,3.93750017e-003
,,,4.53000000e-008,3.91875017e-003
,,,4.54000000e-008,3.94218767e-003
,,,4.55000000e-008,4.00781267e-003
,,,4.56000000e-008,3.90000017e-003
,,,4.57000000e-008,3.85781267e-003
,,,4.58000000e-008,3.95156267e-003
,,,4.59000000e-008,3.91875017e-003
,,,4.60000000e-008,3.88593767e-003
,,,4.61000000e-008,3.90468767e-003
,,,4.62000000e-008,3.97968767e-003
,,,4.63000000e-008,3.90000017e-003
,,,4.64000000e-008,3.93750017e-003
,,,4.65000000e-008,3.93281267e-003
,,,4.66000000e-008,3.89531267e-003
,,,4.67000000e-008,3.95625017e-003
,,,4.68000000e-008,3.85312517e-003
,,,4.69000000e-008,3.88125017e-003
,,,4.70000000e-008,3.90468767e-003
,,,4.71000000e-008,3.93281267e-003
,,,4.72000000e-008,3.90937517e-003
,,,4.73000000e-008,3.91406267e-003
,,,4.74000000e-008,3.94218767e-003
,,,4.75000000e-008,3.91875017e-003
,,,4.76000000e-008,3.88125017e-003
,,,4.77000000e-008,3.93750017e-003
,,,4.78000000e-008,3.87187517e-003
,,,4.79000000e-008,3.84843767e-003
,,,4.80000000e-008,3.90937517e-003
,,,4.81000000e-008,3.96562517e-003
,,,4.82000000e-008,3.82031267e-003
,,,4.83000000e-008,3.89062517e-003
,,,4.84000000e-008,3.92812517e-003
,,,4.85000000e-008,3.85312517e-003
,,,4.86000000e-008,3.92343767e-003
,,,4.87000000e-008,3.90000017e-003
,,,4.88000000e-008,3.81562517e-003
,,,4.89000000e-008,3.92812517e-003
,,,4.90000000e-008,3.94687517e-003
,,,4.91000000e-008,3.86250017e-003
,,,4.92000000e-008,3.89531267e-003
,,,4.93000000e-008,3.90000017e-003
,,,4.94000000e-008,3.87656267e-003
,,,4.95000000e-008,3.85781267e-003
,,,4.96000000e-008,3.93750017e-003
,,,4.97000000e-008,3.86718767e-003
,,,4.98000000e-008,3.93750017e-003
,,,4.99000000e-008,3.76406266e-003
,,,5.00000000e-008,3.95625017e-003
,,,5.01000000e-008,3.82031267e-003
,,,5.02000000e-008,3.87187517e-003
,,,5.03000000e-008,3.88125017e-003
,,,5.04000000e-008,3.90468767e-003
,,,5.05000000e-008,3.92343767e-003
,,,5.06000000e-008,3.90000017e-003
,,,5.07000000e-008,3.89531267e-003
,,,5.08000000e-008,3.82968767e-003
,,,5.09000000e-008,3.99843767e-003
,,,5.10000000e-008,3.90937517e-003
,,,5.11000000e-008,3.90468767e-003
,,,5.12000000e-008,3.88125017e-003
,,,5.13000000e-008,3.91406267e-003
,,,5.14000000e-008,3.88593767e-003
,,,5.15000000e-008,3.84843767e-003
,,,5.16000000e-008,3.97031267e-003
,,,5.17000000e-008,3.80625017e-003
,,,5.18000000e-008,3.97500017e-003
,,,5.19000000e-008,3.84843767e-003
,,,5.20000000e-008,3.86718767e-003
,,,5.21000000e-008,4.00781267e-003
,,,5.22000000e-008,3.79687516e-003
,,,5.23000000e-008,3.88125017e-003
,,,5.24000000e-008,3.94218767e-003
,,,5.25000000e-008,3.84843767e-003
,,,5.26000000e-008,3.90937517e-003
,,,5.27000000e-008,3.88593767e-003
,,,5.28000000e-008,3.90000017e-003
,,,5.29000000e-008,3.84375017e-003
,,,5.30000000e-008,3.96562517e-003
,,,5.31000000e-008,3.89531267e-003
,,,5.32000000e-008,3.92343767e-003
,,,5.33000000e-008,3.92343767e-003
,,,5.34000000e-008,3.92343767e-003
,,,5.35000000e-008,3.90468767e-003
,,,5.36000000e-008,4.01718767e-003
,,,5.37000000e-008,3.87187517e-003
,,,5.38000000e-008,3.98906267e-003
,,,5.39000000e-008,3.81562517e-003
,,,5.40000000e-008,3.96562517e-003
,,,5.41000000e-008,3.89531267e-003
,,,5.42000000e-008,3.90937517e-003
,,,5.43000000e-008,3.96093767e-003
,,,5.44000000e-008,3.89531267e-003
,,,5.45000000e-008,3.92812517e-003
,,,5.46000000e-008,3.99375017e-003
,,,5.47000000e-008,3.96562517e-003
,,,5.48000000e-008,3.82500017e-003
,,,5.49000000e-008,3.99375017e-003
,,,5.50000000e-008,3.90468767e-003
,,,5.51000000e-008,3.95625017e-003
,,,5.52000000e-008,3.93750017e-003
,,,5.53000000e-008,3.94218767e-003
,,,5.54000000e-008,3.95156267e-003
,,,5.55000000e-008,3.85781267e-003
,,,5.56000000e-008,3.96093767e-003
,,,5.57000000e-008,3.91406267e-003
,,,5.58000000e-008,3.86250017e-003
,,,5.59000000e-008,3.95156267e-003
,,,5.60000000e-008,3.92343767e-003
,,,5.61000000e-008,3.83437517e-003
,,,5.62000000e-008,3.92343767e-003
,,,5.63000000e-008,3.97031267e-003
,,,5.64000000e-008,3.90000017e-003
,,,5.65000000e-008,3.93281267e-003
,,,5.66000000e-008,3.96093767e-003
